{
	"count": 19,
	"next": "https://api.rawg.io/api/genres?key=17b077ef71454663b782533ae78d3430&ordering=name&page=2&page_size=10",
	"previous": null,
	"results": [
		{
			"id": 4,
			"name": "Action",
			"slug": "action",
			"games_count": 188892,
			"image_background": "https://media.rawg.io/media/games/7fa/7fa0b586293c5861ee32490e953a4996.jpg",
			"games": [
				{
					"id": 3498,
					"slug": "grand-theft-auto-v",
					"name": "Grand Theft Auto V",
					"added": 22155
				},
				{
					"id": 3328,
					"slug": "the-witcher-3-wild-hunt",
					"name": "The Witcher 3: Wild Hunt",
					"added": 21815
				},
				{
					"id": 5286,
					"slug": "tomb-raider",
					"name": "Tomb Raider (2013)",
					"added": 17638
				},
				{
					"id": 13536,
					"slug": "portal",
					"name": "Portal",
					"added": 17594
				},
				{
					"id": 12020,
					"slug": "left-4-dead-2",
					"name": "Left 4 Dead 2",
					"added": 17402
				},
				{
					"id": 5679,
					"slug": "the-elder-scrolls-v-skyrim",
					"name": "The Elder Scrolls V: Skyrim",
					"added": 16608
				}
			]
		},
		{
			"id": 3,
			"name": "Adventure",
			"slug": "adventure",
			"games_count": 148916,
			"image_background": "https://media.rawg.io/media/games/c50/c5085506fe4b5e20fc7aa5ace842c20b.jpg",
			"games": [
				{
					"id": 3439,
					"slug": "life-is-strange-episode-1-2",
					"name": "Life is Strange",
					"added": 15800
				},
				{
					"id": 1030,
					"slug": "limbo",
					"name": "Limbo",
					"added": 14024
				},
				{
					"id": 23027,
					"slug": "the-walking-dead",
					"name": "The Walking Dead: Season 1",
					"added": 11608
				},
				{
					"id": 41,
					"slug": "little-nightmares",
					"name": "Little Nightmares",
					"added": 11559
				},
				{
					"id": 19487,
					"slug": "alan-wake",
					"name": "Alan Wake",
					"added": 10403
				},
				{
					"id": 9721,
					"slug": "garrys-mod",
					"name": "Garry's Mod",
					"added": 10403
				}
			]
		},
		{
			"id": 11,
			"name": "Arcade",
			"slug": "arcade",
			"games_count": 22665,
			"image_background": "https://media.rawg.io/media/games/082/082365507ff04d456c700157072d35db.jpg",
			"games": [
				{
					"id": 3612,
					"slug": "hotline-miami",
					"name": "Hotline Miami",
					"added": 10828
				},
				{
					"id": 17540,
					"slug": "injustice-gods-among-us-ultimate-edition",
					"name": "Injustice: Gods Among Us Ultimate Edition",
					"added": 9843
				},
				{
					"id": 22509,
					"slug": "minecraft",
					"name": "Minecraft",
					"added": 8724
				},
				{
					"id": 4003,
					"slug": "grid-2",
					"name": "GRID 2",
					"added": 7713
				},
				{
					"id": 3408,
					"slug": "hotline-miami-2-wrong-number",
					"name": "Hotline Miami 2: Wrong Number",
					"added": 6403
				},
				{
					"id": 58753,
					"slug": "forza-horizon-4",
					"name": "Forza Horizon 4",
					"added": 6274
				}
			]
		},
		{
			"id": 28,
			"name": "Board Games",
			"slug": "board-games",
			"games_count": 8389,
			"image_background": "https://media.rawg.io/media/screenshots/8ff/8ffe8f19d2e764867c8ed625ddf4e368.jpg",
			"games": [
				{
					"id": 23557,
					"slug": "gwent-the-witcher-card-game",
					"name": "Gwent: The Witcher Card Game",
					"added": 5051
				},
				{
					"id": 327999,
					"slug": "dota-underlords",
					"name": "Dota Underlords",
					"added": 4252
				},
				{
					"id": 2055,
					"slug": "adventure-capitalist",
					"name": "AdVenture Capitalist",
					"added": 3571
				},
				{
					"id": 758,
					"slug": "hue",
					"name": "Hue",
					"added": 2809
				},
				{
					"id": 3187,
					"slug": "armello",
					"name": "Armello",
					"added": 2124
				},
				{
					"id": 2306,
					"slug": "poker-night-2",
					"name": "Poker Night 2",
					"added": 2114
				}
			]
		},
		{
			"id": 17,
			"name": "Card",
			"slug": "card",
			"games_count": 4537,
			"image_background": "https://media.rawg.io/media/screenshots/bf8/bf87ef7d08a80006f0f65df6d30174e6.jpg",
			"games": [
				{
					"id": 28121,
					"slug": "slay-the-spire",
					"name": "Slay the Spire",
					"added": 5208
				},
				{
					"id": 23557,
					"slug": "gwent-the-witcher-card-game",
					"name": "Gwent: The Witcher Card Game",
					"added": 5051
				},
				{
					"id": 18852,
					"slug": "poker-night-at-the-inventory",
					"name": "Poker Night at the Inventory",
					"added": 2816
				},
				{
					"id": 332,
					"slug": "the-elder-scrolls-legends",
					"name": "The Elder Scrolls: Legends",
					"added": 2281
				},
				{
					"id": 8923,
					"slug": "faeria",
					"name": "Faeria",
					"added": 2228
				},
				{
					"id": 2306,
					"slug": "poker-night-2",
					"name": "Poker Night 2",
					"added": 2114
				}
			]
		},
		{
			"id": 40,
			"name": "Casual",
			"slug": "casual",
			"games_count": 64326,
			"image_background": "https://media.rawg.io/media/screenshots/054/054bf49d9e736edfda5aa8e9015faf9b.jpeg",
			"games": [
				{
					"id": 9721,
					"slug": "garrys-mod",
					"name": "Garry's Mod",
					"added": 10403
				},
				{
					"id": 326292,
					"slug": "fall-guys",
					"name": "Fall Guys: Ultimate Knockout",
					"added": 8883
				},
				{
					"id": 9830,
					"slug": "brawlhalla",
					"name": "Brawlhalla",
					"added": 8258
				},
				{
					"id": 356714,
					"slug": "among-us",
					"name": "Among Us",
					"added": 7879
				},
				{
					"id": 817974,
					"slug": "wallpaper-engine",
					"name": "Wallpaper Engine",
					"added": 6536
				},
				{
					"id": 42187,
					"slug": "the-sims-4",
					"name": "The Sims 4",
					"added": 6505
				}
			]
		},
		{
			"id": 34,
			"name": "Educational",
			"slug": "educational",
			"games_count": 15692,
			"image_background": "https://media.rawg.io/media/screenshots/57d/57d561294af826d0dbf8d72aeeeff4b8.jpg",
			"games": [
				{
					"id": 1358,
					"slug": "papers-please",
					"name": "Papers, Please",
					"added": 7189
				},
				{
					"id": 1140,
					"slug": "world-of-goo",
					"name": "World of Goo",
					"added": 4585
				},
				{
					"id": 2778,
					"slug": "surgeon-simulator-cpr",
					"name": "Surgeon Simulator",
					"added": 4076
				},
				{
					"id": 9768,
					"slug": "gameguru",
					"name": "GameGuru",
					"added": 2674
				},
				{
					"id": 13777,
					"slug": "sid-meiers-civilization-iv-colonization",
					"name": "Sid Meier's Civilization IV: Colonization",
					"added": 2424
				},
				{
					"id": 6885,
					"slug": "pirates-3",
					"name": "Sid Meier's Pirates!",
					"added": 2355
				}
			]
		},
		{
			"id": 19,
			"name": "Family",
			"slug": "family",
			"games_count": 5408,
			"image_background": "https://media.rawg.io/media/games/d03/d030347839f74454afcd1008248b08ae.jpg",
			"games": [
				{
					"id": 3254,
					"slug": "journey",
					"name": "Journey",
					"added": 8564
				},
				{
					"id": 3729,
					"slug": "lego-the-hobbit",
					"name": "LEGO The Hobbit",
					"added": 5466
				},
				{
					"id": 3350,
					"slug": "broken-age",
					"name": "Broken Age",
					"added": 5134
				},
				{
					"id": 1259,
					"slug": "machinarium",
					"name": "Machinarium",
					"added": 4718
				},
				{
					"id": 1140,
					"slug": "world-of-goo",
					"name": "World of Goo",
					"added": 4585
				},
				{
					"id": 4331,
					"slug": "sonic-generations",
					"name": "Sonic Generations",
					"added": 4308
				}
			]
		},
		{
			"id": 6,
			"name": "Fighting",
			"slug": "fighting",
			"games_count": 11768,
			"image_background": "https://media.rawg.io/media/games/9f3/9f3c513b301d8d7250a64dd7e73c62df.jpg",
			"games": [
				{
					"id": 17540,
					"slug": "injustice-gods-among-us-ultimate-edition",
					"name": "Injustice: Gods Among Us Ultimate Edition",
					"added": 9843
				},
				{
					"id": 108,
					"slug": "mortal-kombat-x",
					"name": "Mortal Kombat X",
					"added": 8986
				},
				{
					"id": 28179,
					"slug": "sega-mega-drive-and-genesis-classics",
					"name": "SEGA Mega Drive and Genesis Classics",
					"added": 8409
				},
				{
					"id": 9830,
					"slug": "brawlhalla",
					"name": "Brawlhalla",
					"added": 8258
				},
				{
					"id": 274480,
					"slug": "mortal-kombat-11",
					"name": "Mortal Kombat 11",
					"added": 5692
				},
				{
					"id": 44525,
					"slug": "yakuza-kiwami",
					"name": "Yakuza Kiwami",
					"added": 4700
				}
			]
		},
		{
			"id": 51,
			"name": "Indie",
			"slug": "indie",
			"games_count": 81360,
			"image_background": "https://media.rawg.io/media/games/b6b/b6b20bfc4b34e312dbc8aac53c95a348.jpg",
			"games": [
				{
					"id": 1030,
					"slug": "limbo",
					"name": "Limbo",
					"added": 14024
				},
				{
					"id": 422,
					"slug": "terraria",
					"name": "Terraria",
					"added": 13409
				},
				{
					"id": 3272,
					"slug": "rocket-league",
					"name": "Rocket League",
					"added": 12789
				},
				{
					"id": 9767,
					"slug": "hollow-knight",
					"name": "Hollow Knight",
					"added": 11605
				},
				{
					"id": 654,
					"slug": "stardew-valley",
					"name": "Stardew Valley",
					"added": 10860
				},
				{
					"id": 3612,
					"slug": "hotline-miami",
					"name": "Hotline Miami",
					"added": 10828
				}
			]
		}
	]
}